C:\Users\Magshimim\Documents\Magshimim\Year 2\principles\week7\chessellaandbar\chessGraphics\chess_new\Bishop.cpp;C:\Users\Magshimim\Documents\Magshimim\Year 2\principles\week7\chessellaandbar\chessGraphics\chess_new\x64\Debug\Bishop.obj
C:\Users\Magshimim\Documents\Magshimim\Year 2\principles\week7\chessellaandbar\chessGraphics\chess_new\Blank.cpp;C:\Users\Magshimim\Documents\Magshimim\Year 2\principles\week7\chessellaandbar\chessGraphics\chess_new\x64\Debug\Blank.obj
C:\Users\Magshimim\Documents\Magshimim\Year 2\principles\week7\chessellaandbar\chessGraphics\chess_new\Board.cpp;C:\Users\Magshimim\Documents\Magshimim\Year 2\principles\week7\chessellaandbar\chessGraphics\chess_new\x64\Debug\Board.obj
C:\Users\Magshimim\Documents\Magshimim\Year 2\principles\week7\chessellaandbar\chessGraphics\chess_new\King.cpp;C:\Users\Magshimim\Documents\Magshimim\Year 2\principles\week7\chessellaandbar\chessGraphics\chess_new\x64\Debug\King.obj
C:\Users\Magshimim\Documents\Magshimim\Year 2\principles\week7\chessellaandbar\chessGraphics\chess_new\Night.cpp;C:\Users\Magshimim\Documents\Magshimim\Year 2\principles\week7\chessellaandbar\chessGraphics\chess_new\x64\Debug\Night.obj
C:\Users\Magshimim\Documents\Magshimim\Year 2\principles\week7\chessellaandbar\chessGraphics\chess_new\Pawn.cpp;C:\Users\Magshimim\Documents\Magshimim\Year 2\principles\week7\chessellaandbar\chessGraphics\chess_new\x64\Debug\Pawn.obj
C:\Users\Magshimim\Documents\Magshimim\Year 2\principles\week7\chessellaandbar\chessGraphics\chess_new\Point.cpp;C:\Users\Magshimim\Documents\Magshimim\Year 2\principles\week7\chessellaandbar\chessGraphics\chess_new\x64\Debug\Point.obj
C:\Users\Magshimim\Documents\Magshimim\Year 2\principles\week7\chessellaandbar\chessGraphics\chess_new\Queen.cpp;C:\Users\Magshimim\Documents\Magshimim\Year 2\principles\week7\chessellaandbar\chessGraphics\chess_new\x64\Debug\Queen.obj
C:\Users\Magshimim\Documents\Magshimim\Year 2\principles\week7\chessellaandbar\chessGraphics\chess_new\Rook.cpp;C:\Users\Magshimim\Documents\Magshimim\Year 2\principles\week7\chessellaandbar\chessGraphics\chess_new\x64\Debug\Rook.obj
C:\Users\Magshimim\Documents\Magshimim\Year 2\principles\week7\chessellaandbar\chessGraphics\chess_new\Source.cpp;C:\Users\Magshimim\Documents\Magshimim\Year 2\principles\week7\chessellaandbar\chessGraphics\chess_new\x64\Debug\Source.obj
C:\Users\Magshimim\Documents\Magshimim\Year 2\principles\week7\chessellaandbar\chessGraphics\chess_new\stdafx.cpp;C:\Users\Magshimim\Documents\Magshimim\Year 2\principles\week7\chessellaandbar\chessGraphics\chess_new\x64\Debug\stdafx.obj
C:\Users\Magshimim\Documents\Magshimim\Year 2\principles\week7\chessellaandbar\chessGraphics\chess_new\Tools.cpp;C:\Users\Magshimim\Documents\Magshimim\Year 2\principles\week7\chessellaandbar\chessGraphics\chess_new\x64\Debug\Tools.obj
