^C:\USERS\MAGSHIMIM\DESKTOP\EKRONOTEXERCISES\WEEK7-8_PROJECT\CHESSELLAANDBAR\CHESSGRAPHICS\CHESS_NEW2\BISHOP.CPP|C:\USERS\MAGSHIMIM\DESKTOP\EKRONOTEXERCISES\WEEK7-8_PROJECT\CHESSELLAANDBAR\CHESSGRAPHICS\CHESS_NEW2\BLANK.CPP|C:\USERS\MAGSHIMIM\DESKTOP\EKRONOTEXERCISES\WEEK7-8_PROJECT\CHESSELLAANDBAR\CHESSGRAPHICS\CHESS_NEW2\BOARD.CPP|C:\USERS\MAGSHIMIM\DESKTOP\EKRONOTEXERCISES\WEEK7-8_PROJECT\CHESSELLAANDBAR\CHESSGRAPHICS\CHESS_NEW2\KING.CPP|C:\USERS\MAGSHIMIM\DESKTOP\EKRONOTEXERCISES\WEEK7-8_PROJECT\CHESSELLAANDBAR\CHESSGRAPHICS\CHESS_NEW2\NIGHT.CPP|C:\USERS\MAGSHIMIM\DESKTOP\EKRONOTEXERCISES\WEEK7-8_PROJECT\CHESSELLAANDBAR\CHESSGRAPHICS\CHESS_NEW2\PAWN.CPP|C:\USERS\MAGSHIMIM\DESKTOP\EKRONOTEXERCISES\WEEK7-8_PROJECT\CHESSELLAANDBAR\CHESSGRAPHICS\CHESS_NEW2\POINT.CPP|C:\USERS\MAGSHIMIM\DESKTOP\EKRONOTEXERCISES\WEEK7-8_PROJECT\CHESSELLAANDBAR\CHESSGRAPHICS\CHESS_NEW2\QUEEN.CPP|C:\USERS\MAGSHIMIM\DESKTOP\EKRONOTEXERCISES\WEEK7-8_PROJECT\CHESSELLAANDBAR\CHESSGRAPHICS\CHESS_NEW2\ROOK.CPP|C:\USERS\MAGSHIMIM\DESKTOP\EKRONOTEXERCISES\WEEK7-8_PROJECT\CHESSELLAANDBAR\CHESSGRAPHICS\CHESS_NEW2\SOURCE.CPP|C:\USERS\MAGSHIMIM\DESKTOP\EKRONOTEXERCISES\WEEK7-8_PROJECT\CHESSELLAANDBAR\CHESSGRAPHICS\CHESS_NEW2\STDAFX.CPP|C:\USERS\MAGSHIMIM\DESKTOP\EKRONOTEXERCISES\WEEK7-8_PROJECT\CHESSELLAANDBAR\CHESSGRAPHICS\CHESS_NEW2\TOOLS.CPP
C:\USERS\MAGSHIMIM\DESKTOP\EKRONOTEXERCISES\WEEK7-8_PROJECT\CHESSELLAANDBAR\CHESSGRAPHICS\CHESS_NEW2\X64\DEBUG\VC143.PDB
C:\USERS\MAGSHIMIM\DESKTOP\EKRONOTEXERCISES\WEEK7-8_PROJECT\CHESSELLAANDBAR\CHESSGRAPHICS\CHESS_NEW2\X64\DEBUG\VC143.IDB
C:\USERS\MAGSHIMIM\DESKTOP\EKRONOTEXERCISES\WEEK7-8_PROJECT\CHESSELLAANDBAR\CHESSGRAPHICS\CHESS_NEW2\X64\DEBUG\TOOLS.OBJ
C:\USERS\MAGSHIMIM\DESKTOP\EKRONOTEXERCISES\WEEK7-8_PROJECT\CHESSELLAANDBAR\CHESSGRAPHICS\CHESS_NEW2\X64\DEBUG\STDAFX.OBJ
C:\USERS\MAGSHIMIM\DESKTOP\EKRONOTEXERCISES\WEEK7-8_PROJECT\CHESSELLAANDBAR\CHESSGRAPHICS\CHESS_NEW2\X64\DEBUG\SOURCE.OBJ
C:\USERS\MAGSHIMIM\DESKTOP\EKRONOTEXERCISES\WEEK7-8_PROJECT\CHESSELLAANDBAR\CHESSGRAPHICS\CHESS_NEW2\X64\DEBUG\ROOK.OBJ
C:\USERS\MAGSHIMIM\DESKTOP\EKRONOTEXERCISES\WEEK7-8_PROJECT\CHESSELLAANDBAR\CHESSGRAPHICS\CHESS_NEW2\X64\DEBUG\QUEEN.OBJ
C:\USERS\MAGSHIMIM\DESKTOP\EKRONOTEXERCISES\WEEK7-8_PROJECT\CHESSELLAANDBAR\CHESSGRAPHICS\CHESS_NEW2\X64\DEBUG\POINT.OBJ
C:\USERS\MAGSHIMIM\DESKTOP\EKRONOTEXERCISES\WEEK7-8_PROJECT\CHESSELLAANDBAR\CHESSGRAPHICS\CHESS_NEW2\X64\DEBUG\PAWN.OBJ
C:\USERS\MAGSHIMIM\DESKTOP\EKRONOTEXERCISES\WEEK7-8_PROJECT\CHESSELLAANDBAR\CHESSGRAPHICS\CHESS_NEW2\X64\DEBUG\NIGHT.OBJ
C:\USERS\MAGSHIMIM\DESKTOP\EKRONOTEXERCISES\WEEK7-8_PROJECT\CHESSELLAANDBAR\CHESSGRAPHICS\CHESS_NEW2\X64\DEBUG\KING.OBJ
C:\USERS\MAGSHIMIM\DESKTOP\EKRONOTEXERCISES\WEEK7-8_PROJECT\CHESSELLAANDBAR\CHESSGRAPHICS\CHESS_NEW2\X64\DEBUG\BOARD.OBJ
C:\USERS\MAGSHIMIM\DESKTOP\EKRONOTEXERCISES\WEEK7-8_PROJECT\CHESSELLAANDBAR\CHESSGRAPHICS\CHESS_NEW2\X64\DEBUG\BLANK.OBJ
C:\USERS\MAGSHIMIM\DESKTOP\EKRONOTEXERCISES\WEEK7-8_PROJECT\CHESSELLAANDBAR\CHESSGRAPHICS\CHESS_NEW2\X64\DEBUG\BISHOP.OBJ
^C:\USERS\MAGSHIMIM\DESKTOP\EKRONOTEXERCISES\WEEK7-8_PROJECT\CHESSELLAANDBAR\CHESSGRAPHICS\CHESS_NEW2\POINT.CPP
C:\USERS\MAGSHIMIM\DESKTOP\EKRONOTEXERCISES\WEEK7-8_PROJECT\CHESSELLAANDBAR\CHESSGRAPHICS\CHESS_NEW2\X64\DEBUG\VC143.PDB
^C:\USERS\MAGSHIMIM\DESKTOP\EKRONOTEXERCISES\WEEK7-8_PROJECT\CHESSELLAANDBAR\CHESSGRAPHICS\CHESS_NEW2\STDAFX.CPP
C:\USERS\MAGSHIMIM\DESKTOP\EKRONOTEXERCISES\WEEK7-8_PROJECT\CHESSELLAANDBAR\CHESSGRAPHICS\CHESS_NEW2\X64\DEBUG\VC143.PDB
^C:\USERS\MAGSHIMIM\DESKTOP\EKRONOTEXERCISES\WEEK7-8_PROJECT\CHESSELLAANDBAR\CHESSGRAPHICS\CHESS_NEW2\BISHOP.CPP|C:\USERS\MAGSHIMIM\DESKTOP\EKRONOTEXERCISES\WEEK7-8_PROJECT\CHESSELLAANDBAR\CHESSGRAPHICS\CHESS_NEW2\BLANK.CPP|C:\USERS\MAGSHIMIM\DESKTOP\EKRONOTEXERCISES\WEEK7-8_PROJECT\CHESSELLAANDBAR\CHESSGRAPHICS\CHESS_NEW2\BOARD.CPP|C:\USERS\MAGSHIMIM\DESKTOP\EKRONOTEXERCISES\WEEK7-8_PROJECT\CHESSELLAANDBAR\CHESSGRAPHICS\CHESS_NEW2\KING.CPP|C:\USERS\MAGSHIMIM\DESKTOP\EKRONOTEXERCISES\WEEK7-8_PROJECT\CHESSELLAANDBAR\CHESSGRAPHICS\CHESS_NEW2\NIGHT.CPP|C:\USERS\MAGSHIMIM\DESKTOP\EKRONOTEXERCISES\WEEK7-8_PROJECT\CHESSELLAANDBAR\CHESSGRAPHICS\CHESS_NEW2\PAWN.CPP|C:\USERS\MAGSHIMIM\DESKTOP\EKRONOTEXERCISES\WEEK7-8_PROJECT\CHESSELLAANDBAR\CHESSGRAPHICS\CHESS_NEW2\QUEEN.CPP|C:\USERS\MAGSHIMIM\DESKTOP\EKRONOTEXERCISES\WEEK7-8_PROJECT\CHESSELLAANDBAR\CHESSGRAPHICS\CHESS_NEW2\ROOK.CPP|C:\USERS\MAGSHIMIM\DESKTOP\EKRONOTEXERCISES\WEEK7-8_PROJECT\CHESSELLAANDBAR\CHESSGRAPHICS\CHESS_NEW2\SOURCE.CPP|C:\USERS\MAGSHIMIM\DESKTOP\EKRONOTEXERCISES\WEEK7-8_PROJECT\CHESSELLAANDBAR\CHESSGRAPHICS\CHESS_NEW2\TOOLS.CPP
C:\USERS\MAGSHIMIM\DESKTOP\EKRONOTEXERCISES\WEEK7-8_PROJECT\CHESSELLAANDBAR\CHESSGRAPHICS\CHESS_NEW2\X64\DEBUG\VC143.PDB
C:\USERS\MAGSHIMIM\DESKTOP\EKRONOTEXERCISES\WEEK7-8_PROJECT\CHESSELLAANDBAR\CHESSGRAPHICS\CHESS_NEW2\X64\DEBUG\VC143.IDB
C:\USERS\MAGSHIMIM\DESKTOP\EKRONOTEXERCISES\WEEK7-8_PROJECT\CHESSELLAANDBAR\CHESSGRAPHICS\CHESS_NEW2\X64\DEBUG\TOOLS.OBJ
C:\USERS\MAGSHIMIM\DESKTOP\EKRONOTEXERCISES\WEEK7-8_PROJECT\CHESSELLAANDBAR\CHESSGRAPHICS\CHESS_NEW2\X64\DEBUG\SOURCE.OBJ
C:\USERS\MAGSHIMIM\DESKTOP\EKRONOTEXERCISES\WEEK7-8_PROJECT\CHESSELLAANDBAR\CHESSGRAPHICS\CHESS_NEW2\X64\DEBUG\ROOK.OBJ
C:\USERS\MAGSHIMIM\DESKTOP\EKRONOTEXERCISES\WEEK7-8_PROJECT\CHESSELLAANDBAR\CHESSGRAPHICS\CHESS_NEW2\X64\DEBUG\QUEEN.OBJ
C:\USERS\MAGSHIMIM\DESKTOP\EKRONOTEXERCISES\WEEK7-8_PROJECT\CHESSELLAANDBAR\CHESSGRAPHICS\CHESS_NEW2\X64\DEBUG\PAWN.OBJ
C:\USERS\MAGSHIMIM\DESKTOP\EKRONOTEXERCISES\WEEK7-8_PROJECT\CHESSELLAANDBAR\CHESSGRAPHICS\CHESS_NEW2\X64\DEBUG\NIGHT.OBJ
C:\USERS\MAGSHIMIM\DESKTOP\EKRONOTEXERCISES\WEEK7-8_PROJECT\CHESSELLAANDBAR\CHESSGRAPHICS\CHESS_NEW2\X64\DEBUG\KING.OBJ
C:\USERS\MAGSHIMIM\DESKTOP\EKRONOTEXERCISES\WEEK7-8_PROJECT\CHESSELLAANDBAR\CHESSGRAPHICS\CHESS_NEW2\X64\DEBUG\BOARD.OBJ
C:\USERS\MAGSHIMIM\DESKTOP\EKRONOTEXERCISES\WEEK7-8_PROJECT\CHESSELLAANDBAR\CHESSGRAPHICS\CHESS_NEW2\X64\DEBUG\BLANK.OBJ
C:\USERS\MAGSHIMIM\DESKTOP\EKRONOTEXERCISES\WEEK7-8_PROJECT\CHESSELLAANDBAR\CHESSGRAPHICS\CHESS_NEW2\X64\DEBUG\BISHOP.OBJ
^C:\USERS\MAGSHIMIM\DESKTOP\EKRONOTEXERCISES\WEEK7-8_PROJECT\CHESSELLAANDBAR\CHESSGRAPHICS\CHESS_NEW2\BISHOP.CPP
C:\USERS\MAGSHIMIM\DESKTOP\EKRONOTEXERCISES\WEEK7-8_PROJECT\CHESSELLAANDBAR\CHESSGRAPHICS\CHESS_NEW2\X64\DEBUG\VC143.PDB
^C:\USERS\MAGSHIMIM\DESKTOP\EKRONOTEXERCISES\WEEK7-8_PROJECT\CHESSELLAANDBAR\CHESSGRAPHICS\CHESS_NEW2\BLANK.CPP
C:\USERS\MAGSHIMIM\DESKTOP\EKRONOTEXERCISES\WEEK7-8_PROJECT\CHESSELLAANDBAR\CHESSGRAPHICS\CHESS_NEW2\X64\DEBUG\VC143.PDB
^C:\USERS\MAGSHIMIM\DESKTOP\EKRONOTEXERCISES\WEEK7-8_PROJECT\CHESSELLAANDBAR\CHESSGRAPHICS\CHESS_NEW2\BOARD.CPP
C:\USERS\MAGSHIMIM\DESKTOP\EKRONOTEXERCISES\WEEK7-8_PROJECT\CHESSELLAANDBAR\CHESSGRAPHICS\CHESS_NEW2\X64\DEBUG\VC143.PDB
^C:\USERS\MAGSHIMIM\DESKTOP\EKRONOTEXERCISES\WEEK7-8_PROJECT\CHESSELLAANDBAR\CHESSGRAPHICS\CHESS_NEW2\KING.CPP
C:\USERS\MAGSHIMIM\DESKTOP\EKRONOTEXERCISES\WEEK7-8_PROJECT\CHESSELLAANDBAR\CHESSGRAPHICS\CHESS_NEW2\X64\DEBUG\VC143.PDB
^C:\USERS\MAGSHIMIM\DESKTOP\EKRONOTEXERCISES\WEEK7-8_PROJECT\CHESSELLAANDBAR\CHESSGRAPHICS\CHESS_NEW2\NIGHT.CPP
C:\USERS\MAGSHIMIM\DESKTOP\EKRONOTEXERCISES\WEEK7-8_PROJECT\CHESSELLAANDBAR\CHESSGRAPHICS\CHESS_NEW2\X64\DEBUG\VC143.PDB
^C:\USERS\MAGSHIMIM\DESKTOP\EKRONOTEXERCISES\WEEK7-8_PROJECT\CHESSELLAANDBAR\CHESSGRAPHICS\CHESS_NEW2\PAWN.CPP
C:\USERS\MAGSHIMIM\DESKTOP\EKRONOTEXERCISES\WEEK7-8_PROJECT\CHESSELLAANDBAR\CHESSGRAPHICS\CHESS_NEW2\X64\DEBUG\VC143.PDB
^C:\USERS\MAGSHIMIM\DESKTOP\EKRONOTEXERCISES\WEEK7-8_PROJECT\CHESSELLAANDBAR\CHESSGRAPHICS\CHESS_NEW2\QUEEN.CPP
C:\USERS\MAGSHIMIM\DESKTOP\EKRONOTEXERCISES\WEEK7-8_PROJECT\CHESSELLAANDBAR\CHESSGRAPHICS\CHESS_NEW2\X64\DEBUG\VC143.PDB
^C:\USERS\MAGSHIMIM\DESKTOP\EKRONOTEXERCISES\WEEK7-8_PROJECT\CHESSELLAANDBAR\CHESSGRAPHICS\CHESS_NEW2\ROOK.CPP
C:\USERS\MAGSHIMIM\DESKTOP\EKRONOTEXERCISES\WEEK7-8_PROJECT\CHESSELLAANDBAR\CHESSGRAPHICS\CHESS_NEW2\X64\DEBUG\VC143.PDB
^C:\USERS\MAGSHIMIM\DESKTOP\EKRONOTEXERCISES\WEEK7-8_PROJECT\CHESSELLAANDBAR\CHESSGRAPHICS\CHESS_NEW2\SOURCE.CPP
C:\USERS\MAGSHIMIM\DESKTOP\EKRONOTEXERCISES\WEEK7-8_PROJECT\CHESSELLAANDBAR\CHESSGRAPHICS\CHESS_NEW2\X64\DEBUG\VC143.PDB
^C:\USERS\MAGSHIMIM\DESKTOP\EKRONOTEXERCISES\WEEK7-8_PROJECT\CHESSELLAANDBAR\CHESSGRAPHICS\CHESS_NEW2\TOOLS.CPP
C:\USERS\MAGSHIMIM\DESKTOP\EKRONOTEXERCISES\WEEK7-8_PROJECT\CHESSELLAANDBAR\CHESSGRAPHICS\CHESS_NEW2\X64\DEBUG\VC143.PDB
